"ALLOCATED_HOURS__C","BILLABLE_HOURS__C","BILLING_PER_HOUR__C","CLIENT__C","ID","NAME","NON_BILLABLE_HOURS__C"
"","","","","a022w00000FJoB4AAL","P002",""
"20.0","10.0","25.0","0012w00000QM9utAAD","a022w00000H4hSKAAZ","City Navigator","10.0"
"35.0","22.0","20.0","","a022w00000H4hSLAAZ","App 001","12.0"
"25.0","12.0","14.0","","a022w00000H4hSMAAZ","Web App 001","13.0"
"30.0","18.0","22.0","0012w00000QM9vIAAT","a022w00000H4hSNAAZ","Food App","12.0"
"40.0","24.0","26.0","0012w00000QM9v8AAD","a022w00000H4hSOAAZ","Finance app","15.0"
"50.0","30.0","23.0","","a022w00000H4hSPAAZ","Banking Solution","18.0"
"60.0","36.0","33.0","0012w00000QM9vNAAT","a022w00000H4hSQAAZ","Pharmacy","21.0"
"70.0","42.0","15.0","0012w00000QM9v9AAD","a022w00000H4hSRAAZ","Product Delivery","24.0"
"80.0","48.0","22.0","0012w00000QM9vSAAT","a022w00000H4hSSAAZ","Smart House","27.0"
"90.0","54.0","27.0","0012w00000QM9uoAAD","a022w00000H4hSTAAZ","Car Pooling","30.0"
"","","","","a022w00000FHmDBAA1","P001",""
