"ID","NAME","PROJECT__C"
"a032w000008ympbAAA","PM002","a022w00000H4hSSAAZ"
"a032w000008ymplAAA","PM004","a022w00000H5EZ9AAN"
"a032w000008ympgAAA","PM003","a022w00000H4hSNAAZ"
"a032w000008ympqAAA","PM005","a022w00000H4hSRAAZ"
"a032w000007ZJ1BAAW","PM001","a022w00000FHmDBAA1"
