"ID","STATUS","SUBJECT","STATUS"
"5002w000009dGptAAE","Item Updated","","Item Updated"
"5002w000009dGmFAAU","Item Updated","","Item Updated"
"5002w000009dBzRAAU","Item Updated","","Item Updated"
"5002w000009drrpAAA","Item Updated","","Item Updated"
"5002w000009dsIRAAY","Item Updated","","Item Updated"
"5002w00000A7W5hAAF","Item Updated","","Item Updated"
"5002w00000A7eQ6AAJ","Item Updated","","Item Updated"
"5002w00000A7cZXAAZ","Item Updated","","Item Updated"
"5002w00000A7cyWAAR","Item Updated","","Item Updated"
"5002w00000A7cr8AAB","Item Updated","","Item Updated"
"5002w00000A7WMuAAN","Item Updated","","Item Updated"
"5002w00000BfiYfAAJ","Item Updated","","Item Updated"
"5002w00000BfiVHAAZ","Item Updated","","Item Updated"
"5002w000009JQlPAAW","Item Updated","Starting generator after electrical failure","Item Updated"
"5002w000009JQlQAAW","Item Updated","Performance inadequate for second consecutive week","Item Updated"
"5002w000009JQlRAAW","Item Updated","Seeking guidance on electrical wiring installation for GC5060","Item Updated"
"5002w000009JQlSAAW","Item Updated","Easy installation process","Item Updated"
"5002w000009JQlTAAW","Item Updated","Maintenance guidelines for generator unclear","Item Updated"
"5002w000009JQlUAAW","Item Updated","Electrical circuit malfunctioning","Item Updated"
"5002w000009JQlVAAW","Item Updated","Generator assembly instructions unclear","Item Updated"
"5002w000009JQlWAAW","Item Updated","Structural breakdown of rotor assembly","Item Updated"
"5002w000009JQlXAAW","Item Updated","Customer service for portable generators needs beefing up","Item Updated"
"5002w000009JQlYAAW","Item Updated","Mechanical maintenance guidelines for generator misleading","Item Updated"
"5002w000009JQlZAAW","Item Updated","Maintenance guidelines for generator unclear","Item Updated"
"5002w000009JQlaAAG","Item Updated","Electronic panel fitting loose","Item Updated"
"5002w000009JQlbAAG","Item Updated","Repeated motor breakdown while shutting off","Item Updated"
"5002w000009JQlcAAG","Item Updated","Starting up generator consumes excessive power","Item Updated"
"5002w000009JQldAAG","Item Updated","Delay in installation; spare parts unavailable","Item Updated"
"5002w000009JQleAAG","Item Updated","Frequent mechanical breakdown","Item Updated"
"5002w000009JQlfAAG","Item Updated","Maintenance guidelines for generator unclear","Item Updated"
"5002w000009JQlgAAG","Item Updated","Shutting down of generator","Item Updated"
"5002w000009JQlhAAG","Item Updated","Cannot start generator after electrical failure","Item Updated"
"5002w000009JQliAAG","Item Updated","Structural failure of generator base","Item Updated"
"5002w000009JQljAAG","Item Updated","Power generation below stated level","Item Updated"
"5002w000009JQlkAAG","Item Updated","Generator GC3060 platform structure is weakening","Item Updated"
"5002w000009JQllAAG","Item Updated","Signal panel on GC5060 blinks intermittently","Item Updated"
"5002w000009JQlmAAG","Item Updated","Electric surge damaging adjacent equipment","Item Updated"
"5002w000009JQlnAAG","Item Updated","Design issue with mechanical rotor","Item Updated"
"5002w000009JQloAAG","Item Updated","Motor design hindering performance","Item Updated"
"5002w000009drAlAAI","Item Updated","","Item Updated"
"5002w000009dJQbAAM","Item Updated","","Item Updated"
"5002w000009drSGAAY","Item Updated","","Item Updated"
"5002w00000A7k8NAAR","Item Updated","Sample Case Test","Item Updated"
"5002w00000A7mLVAAZ","Item Updated","Email to case","Item Updated"
"5002w00000A7mLHAAZ","Item Updated","okay","Item Updated"
"5002w00000A7mY6AAJ","Item Updated","","Item Updated"
"5002w00000A7m5OAAR","Item Updated","","Item Updated"
"5002w00000A7mLuAAJ","Item Updated","","Item Updated"
"5002w00000A7m5EAAR","Item Updated","","Item Updated"
"5002w00000A7mIRAAZ","Item Updated","Sample Test Case for Email to Case","Item Updated"
"5002w00000AInUhAAL","Item Updated","Issue","Item Updated"
"5002w00000AIm8YAAT","Item Updated","","Item Updated"
"5002w00000AImc0AAD","Item Updated","","Item Updated"
"5002w00000AInlKAAT","Item Updated","","Item Updated"
