

import java.util.*;

class Parent{
    int delivery_cost, cost=500;
    
    void normal_rate(int weight){
       delivery_cost=cost*weight;
       System.out.println("Delivery Charge Around Same Area :"+delivery_cost);
     }

    
 }

class Child extends Parent{

void extra_rate(int weight){
       delivery_cost=(cost+((cost*12)/100))*weight;
       System.out.println("Delivery Charge Different Area :"+delivery_cost);
}
}

class Main{
public static void main(String args[]){
 Scanner sc=new Scanner(System.in);
 int i;
 
 Child obj1=new Child();
 int arr[]={410506,400100,450321,460001,400231,479000,421056};
 
 System.out.println("Following are the Pincodes for delivery without extra charges");
 System.out.println("410506,400100,450321,460001,400231,479000,421056,..........."); 
 

 System.out.println("Enter Source Pincode");
 int source=sc.nextInt();
 
 System.out.println("Enter Destination Pincode");
 int destination=sc.nextInt();
 
  System.out.println("Enter Weight");
 int weight=sc.nextInt();
 

 for(i=0;i<arr.length;i++)
   {
     if(destination==arr[i])
       {
        obj1.normal_rate(weight);
        break;
       }
       
      
   }


 
   

       
         
}
}


 







