"STATUS__C","SUBJECT__C"
"In Progress",""
"In Progress",""
"In Progress",""
"In Progress",""
"In-Review",""
"Completed",""
"In Progress","Bug Finder"
"Completed","Story First"
"In Progress",""
"Completed",""
"Completed",""
